[edit]
root# show
## Last changed: 2021-11-05 17:59:48 UTC
version 12.1X47-D15.4;
system {
    root-authentication {
        encrypted-password "$1$u5FlL/KQ$FRnPgDPCumOE8oqixUQUu1"; ## SECRET-DATA
    }
    services {
        ssh;
        web-management {
            http {
                interface ge-0/0/0.0;
            }
        }
    }
    syslog {
        user * {
            any emergency;
        }
        file messages {
            any any;
            authorization info;
        }
        file interactive-commands {
            interactive-commands any;
        }
    }
    license {
        autoupdate {
            url https://ae1.juniper.net/junos/key_retrieval;
        }
    }
}
interfaces {
    ge-0/0/0 {
        unit 0 {
            family inet;
        }
    }
    ge-0/0/1 {
        unit 0 {
            family inet {
                address 192.168.14.1/24;
            }
        }
    }
    ge-0/0/2 {
        unit 0 {
            family inet;
        }
    }
    ge-0/0/3 {
        unit 0 {
            family inet {
                address 192.168.15.1/24;
            }
        }
    }
    ge-0/0/5 {
        unit 0 {
            family inet {
                address 10.56.16.86/22;
            }
        }
    }
    ge-0/0/6 {
        unit 0 {
            family inet {
                address 10.10.10.12/29;
            }
        }
    }
}
forwarding-options {
    helpers {
        bootp {
            server 10.10.10.11;
            interface {
                ge-0/0/1.0;
                ge-0/0/3.0;
            }
        }
    }
}
routing-options {
    static {
        route 0.0.0.0/0 next-hop 10.10.10.11;
    }
}
security {
    nat {
        source {
            rule-set trust-to-untrust {
                from zone trust;
                to zone untrust;
                rule rule-any-to-any {
                    match {
                        source-address 0.0.0.0/0;
                        destination-address 0.0.0.0/0;
                    }
                    then {
                        source-nat {
                            interface;
                        }
                    }
                }
            }
        }
    }
    policies {
        from-zone trust to-zone trust {
            policy default-permit {
                match {
                    source-address any;
                    destination-address any;
                    application any;
                }
                then {
                    permit;
                }
            }
        }
        from-zone untrust to-zone trust {
            policy default-deny {
                match {
                    source-address any;
                    destination-address any;
                    application any;
                }
                then {
                    deny;
                }
            }
        }
        from-zone trust to-zone untrust {
            policy internet-access {
                match {
                    source-address any;
                    destination-address any;
                    application any;
                }
                then {
                    permit;
                }
            }
        }
    }
    zones {
        security-zone trust {
            interfaces {
                ge-0/0/1.0 {
                    host-inbound-traffic {
                        system-services {
                            ping;
                            dhcp;
                        }
                    }
                }
                ge-0/0/3.0 {
                    host-inbound-traffic {
                        system-services {
                            ping;
                            dhcp;
                        }
                    }
                }
                ge-0/0/6.0 {
                    host-inbound-traffic {
                        system-services {
                            dhcp;
                            ping;
                        }
                    }
                }
            }
        }
        security-zone untrust {
            interfaces {
                ge-0/0/5.0 {
                    host-inbound-traffic {
                        system-services {
                            ping;
                        }
                    }
                }
            }
        }
    }
}
